Arbeidskrav 3: Regresjonsanalyse
…
#Prediksjonsmodell for legext basert på legpress
ext.m1 <- lm(legext ~ legpress, data = Legext_modell)

2.1 Bruk data fra et tidspunkt (time) og et treningsvolum (sets)

Legext_modell |>
  filter(
    time == "session1",
    sets == "single"
  )

# A tibble: 39 × 8
   participant sex    include time     sets   leg   legpress legext
   <chr>       <chr>  <chr>   <chr>    <chr>  <chr>    <dbl>  <dbl>
 1 FP13        male   incl    session1 single R        125       55
 2 FP1         male   excl    session1 single R        175       65
 3 FP16        female incl    session1 single R         95       35
 4 FP17        male   incl    session1 single L        295       75
 5 FP12        female incl    session1 single L        225       75
 6 FP11        male   incl    session1 single L        180       65
 7 FP9         male   incl    session1 single L        165       80
 8 FP14        female incl    session1 single L         87.5     50
 9 FP4         female excl    session1 single L        170       45
10 FP6         female incl    session1 single R        110       40
# ℹ 29 more rows
…
